{
    "key": "group_5f355b677a1d7",
    "title": "Template archive",
    "fields": [
        {
            "key": "field_5f355bd78c40c",
            "label": "Custom Post Type",
            "name": "custom_post_type",
            "type": "radio",
            "instructions": "",
            "required": 1,
            "conditional_logic": 0,
            "wrapper": {
                "width": "",
                "class": "",
                "id": ""
            },
            "choices": {
                "training": "Formation",
                "toolbox": "Boite à outils",
                "post": "Actualités",
                "inspire": "S'inspirer"
            },
            "allow_null": 0,
            "other_choice": 0,
            "default_value": "",
            "layout": "horizontal",
            "return_format": "value",
            "save_other_choice": 0
        }
    ],
    "location": [
        [
            {
                "param": "post_template",
                "operator": "==",
                "value": "templates\/tpl-archive.php"
            }
        ]
    ],
    "menu_order": 0,
    "position": "normal",
    "style": "default",
    "label_placement": "top",
    "instruction_placement": "label",
    "hide_on_screen": "",
    "active": true,
    "description": "",
    "modified": 1622732112
}