{
    "key": "group_5f871b43bd746",
    "title": "Catégorie s'informer : ordre des catégories",
    "fields": [
        {
            "key": "field_5f8839a4cc41a",
            "label": "Afficher cette catégorie en premier ?",
            "name": "first_cat_training",
            "type": "true_false",
            "instructions": "",
            "required": 0,
            "conditional_logic": 0,
            "wrapper": {
                "width": "",
                "class": "",
                "id": ""
            },
            "message": "Option à activer sur une seule catégorie (la catégorie \"Introductions\")",
            "default_value": 0,
            "ui": 1,
            "ui_on_text": "",
            "ui_off_text": ""
        },
        {
            "key": "field_5f871b6dfb2a5",
            "label": "Afficher cette catégorie en dernier ?",
            "name": "last_cat_training",
            "type": "true_false",
            "instructions": "",
            "required": 0,
            "conditional_logic": 0,
            "wrapper": {
                "width": "",
                "class": "",
                "id": ""
            },
            "message": "Option à activer sur une seule catégorie (la catégorie \"consommation et production\")",
            "default_value": 0,
            "ui": 1,
            "ui_on_text": "",
            "ui_off_text": ""
        }
    ],
    "location": [
        [
            {
                "param": "taxonomy",
                "operator": "==",
                "value": "taxo_training"
            }
        ],
        [
            {
                "param": "taxonomy",
                "operator": "==",
                "value": "taxo_inspire"
            }
        ]
    ],
    "menu_order": 0,
    "position": "normal",
    "style": "default",
    "label_placement": "top",
    "instruction_placement": "label",
    "hide_on_screen": "",
    "active": true,
    "description": "Utiliser pour le bloc Accueil : s'informer",
    "modified": 1622732112
}