<svg width="512" height="512" viewBox="0 0 512 512" fill="none" xmlns="http://www.w3.org/2000/svg">
    <rect width="512" height="512" fill="#0054FF"/>
    <path d="M210 417.001L250.551 195.121H260.581L301.501 417.001H210Z" fill="white"/>
    <path d="M287.626 95H223.832V157.368H287.626V95Z" fill="white"/>
     <style>
        rect {
            fill: #0054FF;
        }
        path {
            fill: white;
        }
        @media (prefers-color-scheme: dark) {
            rect {
                fill: black;
            }
            path {
                fill: #0054FF;
            }
        }
    </style>
</svg>
