<svg width="6" height="10" viewBox="0 0 6 10" fill="none" xmlns="http://www.w3.org/2000/svg">
<path fill-rule="evenodd" clip-rule="evenodd" d="M0.292893 0.292893C0.683417 -0.0976311 1.31658 -0.0976311 1.70711 0.292893L5.70711 4.2929C6.09764 4.68343 6.09764 5.31659 5.70711 5.70711L1.70711 9.70712C1.31658 10.0976 0.683417 10.0976 0.292893 9.70712C-0.0976311 9.3166 -0.0976311 8.68343 0.292893 8.29291L3.58579 5.00001L0.292893 1.70711C-0.0976311 1.31658 -0.0976311 0.683417 0.292893 0.292893Z" fill="#6E4939"/>
</svg>
