<svg width="25" height="25" viewBox="0 0 25 25" fill="none" xmlns="http://www.w3.org/2000/svg">
<path d="M12.6242 19.3707H6.23441C5.82761 19.3707 5.49805 19.0409 5.49805 18.6343V6.76534C5.49805 6.3586 5.82766 6.02899 6.23441 6.02899H18.1034C18.51 6.02899 18.8397 6.3586 18.8397 6.76534V18.6343C18.8397 19.0409 18.51 19.3707 18.1034 19.3707H14.7036V14.204H16.4378L16.6974 12.1905H14.7036V10.905C14.7036 10.322 14.8655 9.92476 15.7014 9.92476L16.7677 9.9243V8.12338C16.5833 8.09884 15.9504 8.04402 15.214 8.04402C13.6767 8.04402 12.6242 8.98237 12.6242 10.7056V12.1905H10.8856V14.204H12.6242V19.3707Z" fill="white"/>
</svg>
