<svg width="25" height="25" viewBox="0 0 25 25" fill="none" xmlns="http://www.w3.org/2000/svg">
<path fill-rule="evenodd" clip-rule="evenodd" d="M7.57844 9.87888H7.56149C6.7143 9.87888 6.16504 9.32462 6.16504 8.62205C6.16504 7.9058 6.73054 7.36316 7.59467 7.36316C8.4581 7.36316 8.989 7.90444 9.00595 8.62C9.00595 9.32256 8.4581 9.87888 7.57844 9.87888ZM18.1725 18.0365H15.5187V14.2844C15.5187 13.3023 15.1036 12.6319 14.1907 12.6319C13.4925 12.6319 13.1042 13.0843 12.9235 13.5203C12.8638 13.6582 12.8649 13.8438 12.866 14.0351L12.8663 14.1129V18.0365H10.2372C10.2372 18.0365 10.2711 11.3901 10.2372 10.7859H12.8663V11.9239C13.0217 11.4263 13.8618 10.7162 15.2024 10.7162C16.8657 10.7162 18.1725 11.7592 18.1725 14.0049V18.0365ZM8.80828 10.7857H6.46791V18.0363H8.80828V10.7857Z" fill="white"/>
</svg>
