<svg width="268" height="142" viewBox="0 0 268 142" fill="none" xmlns="http://www.w3.org/2000/svg" alt="La Fabrique des récits">
    <g clip-path="url(#clip0)">
        <path d="M13.5 126.8H2V78.8H13.5V86.6C17 80.9 22.6 77.9 29.6 77.9C30.5 77.9 31.4 77.9 32 78.1V90.7C30.7 90.2 28.9 89.9 27 89.9C18.4 89.9 13.4 94.3 13.4 102.4V126.8H13.5Z" fill="white"/>
        <path d="M49.7 98.5H74.5C73.3 91.8 68.8 87.9 62.1 87.9C55.4 87.9 51 91.7 49.7 98.5ZM85.8 106.6H49.6C50.8 113.6 55.5 117.7 62.6 117.7C67.7 117.7 70.7 115.8 72.2 112.4H84.7C81.8 122.4 73.5 127.8 62.1 127.8C48.4 127.8 38.3 117.5 38.3 102.8C38.3 88.1 48.4 77.8 62.1 77.8C75.8 77.8 85.9 88.1 85.9 102.8C86 104.1 85.9 105.4 85.8 106.6Z" fill="white"/>
        <path d="M117.8 88.4C110.6 88.4 105.2 94.2 105.2 102.8C105.2 111.4 110.6 117.2 117.8 117.2C123.9 117.2 129 113.6 130 106.6H141.9C141.3 119.3 131.1 127.7 117.8 127.7C104 127.7 93.7 117.4 93.7 102.7C93.7 88 104 77.7 117.8 77.7C130.8 77.7 140.7 85.8 141.8 97.8H129.7C128.9 91.5 123.8 88.4 117.8 88.4Z" fill="white"/>
        <path d="M153 126.8V78.8H164.5V126.8H153Z" fill="white"/>
        <path d="M200.5 117.2C202.1 117.2 204.2 116.9 205.8 116.3V126.6C204.1 127.2 201 127.8 198.2 127.8C188.7 127.8 181.8 124.1 181.8 111.2V88.8H174.1V78.8H181.8V64.3H193.3V78.7H205.8V88.8H193.3V110.3C193.3 115.1 195.5 117.2 200.5 117.2Z" fill="white"/>
        <path d="M235.6 127.8C223.6 127.8 214.5 121.6 214.5 111H226.5C226.5 116.2 230.4 118.8 235.6 118.8C240.4 118.8 243.3 117.1 243.3 113.5C243.3 103.3 215.3 112 215.3 92.4C215.3 83.5 223.5 77.9 234.1 77.9C245.6 77.9 254.3 85 254.3 94.1H242.3C242.3 90.1 238.8 87 234.1 87C229.8 87 226.9 88.8 226.9 91.9C226.9 101.1 255.2 93.2 255.2 113C255.2 122.1 246.9 127.8 235.6 127.8Z" fill="white"/>
        <path d="M154.4 56.8L150.6 56.3L153.8 59.5L152 62.3L155.4 61.7L154.8 64.6L158.8 62.5L163 64.6L162.3 60.6L164.1 60.3L162.3 58.9L165.8 56H161.9V53.5L159.9 55.1L157.6 51.3L154.4 56.8ZM161.5 46.4L167.6 41.5V50.1L181.8 50L171.3 58.7L177.3 63.7L168.9 65.1L170.7 74.9L158.8 68.9L146.5 75.3L147.9 68.6L140 70L146.4 60.2L134.4 48.3L151.3 50.4L157.5 39.7L161.5 46.4Z" fill="white"/>
    </g>
    <defs>
        <clipPath id="clip0">
            <rect width="266" height="141.5" fill="white"/>
        </clipPath>
    </defs>
</svg>